Company,phone,email,city,website
11192337 Canada Inc,647-219-8823,mukesh.khamitkar@gmail.com,Mississauga,N/A
2105522 Ontario Ltd.,416-322-3444,sales@pamca.net,Toronto,https://www.pamca.net/
2617386 Ontario Inc,437-982-7380,lxw15cwru@gmail.com,North York,N/A
3Z Dental Supplies,855-512-9159,3zdental00@gmail.com,Richmond Hill,http://www.3zdental.ca
612465 Ontario Limited O/A International Sew Right,905-374-3600,lyse@safetyclothing.com,Niagara Falls,http://www.safetyclothing.com
ABCO Business Interiors,647-282-0549 ,cindyc@abcogroup.ca,Toronto,https://www.abcogroup.ca
Action Sanitation Products,613-264-8440,sales@actionsanitationproducts.ca,Perth,https://www.actionsanitationproducts.ca
Adaptability Canada Corp,647-606-8382,dguy@adaptabilitycanada.com,Toronto,https://ppecanada.com/
Add Impact Inc.,416-995-0800,tania@add-impact.com,Vaughan,https://www.ai-ppe.com/?
adex marketing,807-476-7556,ace49@shaw.ca,Thunder Bay,N/A
Advance Safety World Ltd,416-675-0255,info@advancesafetyworld.com,Etobicoke,https://www.advancesafetyworld.com
AF Pollution Abatement Systems Inc,613-838-9300,sales@shopsafety.ca,Ottawa,http://shopsafety.ca
AGDM Group Inc.,647-248-2665,robyn@agdmgroup.com,Mississauga,http://www.agdmgroup.com
A-GK Chemical,N/A,ethan@gkchemical.com,Scarborough,http://www.gkchemical.com/
Akran Marketing,613-739-4000,sales@akranmarketing.com,Ottawa,https://www.akranmarketing.com/
ALC 21 INC,416-907-7395,info@alc21.com,Toronto,https://www.alc21.com/
Algonquin Safety Training Inc,705-223-0120,rod@algsafety.ca,North Bay,https://www.algsafety.ca
All Safety Consulting,613-893-1607,laura.mackellar@allsafetyconsulting.com,Kingston,http://allsafetyconsulting.com/
ALN Group Ltd.,647-250-3939,jordan@alngroup.ca,Toronto,http://www.alngroup.ca
Alsco Canada,780-453-0473,mbara@alsco.com,Burlington,https://edmontonppe.ca/
AMP Medical Supply Inc.,416-518-5007,info@ampmedical.ca,Toronto,N/A
Apex Health &amp; Safety,519-852-0021,healthandsafety@apexdisplaymedia.com,London,https://www.apexdisplaymedia.com
AP Trade House Inc.,647-262-1499,hcasper@witrade.com,Mississauga,https://www.witrade.com/
ARNS Group Inc.,416-294-5564,info@arnsinc.com,Vaughan,N/A
Arrow Marketing,519-623-5101 ,inquiry@arrowhealthsupplies.ca,Cambridge,https://www.arrowhealthsupplies.ca/
Asgaard Trading Group,902-981-8838,lethrobert@gmail.com,Ottawa,http://asgaardtrading.com
Aviation Traders Ltd.,416-451-6201,dave@aviationtraders.ca,Etobicoke,https://www.aviationtraders.ca/
Avida Healthwear Inc.,416-751-5874,info@avidastore.com,Toronto,https://www.avidastore.com
Avondale Restaurant Equipment,905-544-0577,info@avondaleequipment.com,Hamilton,https://www.avondaleequipment.com/
Axel Kraft International Limited,905-841-6840,info@axelkraft.com,Aurora,http://www.axelkraft.com
AZ MED Trading Corp,647-287-0398,azmed@azpharm.ca,Oakville,https://www.azpharm.ca
Banwell Medical Centre,226-782-2100,banwellpharmacy@gmail.com,Windsor,https://banwellpharmacy.com/
Bargains Group Ltd.,416-785-5655,jodys@bargainsgroup.com,Toronto,https://www.bargainsgroup.com
Bathurst Wilson IDA Pharmacy,416-638-1755,bathurstwilsonida@outlook.com,North York,N/A
Baus Eyewear,416-857-0899,bausoptic@gmail.com,Markham,https://bauseyewear.com/
BEAPCO,226-782-3302,michael@maxtechconsumers.com,Kitchener,http://www.beapcoproducts.com
Benaifer Cyrus Kakalia Inc.,289-981-7059,cyrus.kakalia@bck-inc.com,Toronto,http://bck-inc.com
BenVCapital Corp,416-918-7175,jessica@benvcapital.com,Ottawa,http://www.benvcapital.com/rportal
Bickle Main Industrial Supply Inc.,905-356-8151,orderdesk@bickleshardware.com,Niagara Falls,https://bickleshardware.com/
Biovolution Lifesciences Ltd,905-216-0102,poojanarula@biovolution.ca,Brampton,N/A
Blue Mountain Linen Inc,705-331-6041,andrew@bluemountainlinen.com,Barrie,http://www.bluemountainlinen.com
BMS Sanitation &amp; Safety Inc.,905-571-1074,orderptbo@bmssanitation.ca,Oshawa,https://bmssanitation.ca/
Boss Promotions Inc,416-318-2116,jonathan@bosspro.com,Toronto,http://www.bosspro.com/
Brant Basics,800-465-2291,info@brantbasics.com,Peterborough,http://www.brantbasics.com
Brisson Castle Building &amp; Living Centre,705-272-4235,info@brissoncastle.com,Cochrane,http://www.brissoncastle.com
Brookdale Medical Specialties Ltd,905-856-5006,sales@brookdalemedical.com,Thornhill,N/A
Brymark Promotions Inc.,613-737-4556 ,mark@brymark.com,Ottawa,https://www.brymark.com/
C4P Inc.,905-230-4008,sales@c4pinc.com,Mississauga,https://c4pinc.com
C6 Medical,877-529-9759,info@c6medical.ca,St. Catharines,https://www.c6medical.ca
Canaan Transport Group Inc.,416-621-6800 ,operations@canaantransport.com,Toronto,http://www.canaantransport.com
Canada Clinic Supply Inc.,416-858-3328,order@canadaclinicsupply.com,Markham,https://www.canadaclinicsupply.com
Canada Coffee / Bathurst Manor Vending Ltd.,416-475-1130 ,ldutra@canadacoffee.ca,Markham,https://canadacoffee.ca/
Canadawide Scientific Ltd.,613-736-8178 ,cwsales@canadawide.ca,Ottawa,https://www.canadawide.ca/
Canadian IPG Corp,519-871-2474,sales@cipg.ca,St. Thomas,https://www.canadianipg.com
Canam PPE,647-243-7668,inquiries@canamppe.com,Richmond Hill,https://canamppe.com/
CanAm Scientific,905-466-5715,lmartyn65@gmail.com,Toronto,N/A
CanAm Scientific,905-466-5715,lmartyn65@gmail.com,Toronto,N/A
canaPHEM,905-493-7436,info@canaphem.ca,Whitby,http://canaphem.ca
Canmade Furniture Products 2010 Inc.,416-798-7198,cnmdtor@canmade.com,North York,https://canmade.com/
CanMedic Technology Inc,647-739-0058,info@canmedictech.com,Markham,https://www.canmedictech.com/
Cannaheal Wholesale,613-366-9710,info@cannahealwholesale.com,Ottawa,http://www.cannahealwholesale.com
CanRad Beauty Limited,437-370-0132,customerservice@canrad.com,Toronto,https://canrad.com
Carr McLean Limited,416-252-3371,pj@carrmclean.ca,Toronto,https://www.carrmclean.ca/covid-19.html
CCS Industrials,905-372-8300,cathyg@ccsind.com,Cobourg,http://www.ccsind.com
Cellay Canada Inc.,416-732-5170,info@cellaycanada.com,Markham,https://www.cellaycanada.com/
Centauras Procurement Group,416-809-5173,david.oreardon@centauras.com,Orillia,https://www.centauras.com
CGET Inc.,613-237-6778,info@cget.ca,Ottawa,http://www.cget.ca/
Champion Products Corp,647-749-7413 ,bsaggoo@championproducts.com,Windsor,https://www.championproducts.com/
Charlotte Care Pharmacy,705-536-7777,charlottecarepharmacy@gmail.com,Peterborough,https://www.remedys.ca/en/ontario/peterborough/charlotte-care-pharmacy-7002358
Cheap PPE,800-314-9082 ,sales@cheapppe.ca,Toronto,https://cheapppe.ca
Chef's Paradise,613-731-2866,info@caparadis.com,Ottawa,http://www.chefsparadise.ca
Chens Enterprises Corporation,905-624-1188 ,chens@chensec.com,Mississauga,N/A
Cinergex Solutions Ltd,416-823-7654,info@cinergex.net,Pickering,N/A
CI Promotions,905-669-4478,info@cipromotions.com,Concord,https://www.cipromotions.com
Citipack Ltd.,416-527-1001,info@citipack.ca,Brampton,https://www.citipack.ca/
CLA-DOR Industrial Supply Co Ltd,613-969-6292,melissa@clador.com,Belleville,https://www.clador.com/
Clinivex Enterprises Inc,877-861-1996,info@theclinivex.com,Toronto,https://theclinivex.com/
Clover Safety Inc.,905-984-9869,info@cloversafe.ca,Fonthill,https://cloversafe.ca/
Collins Safety,613-389-9886,kelly@collins.ca,Kingston,https://collins.ca/
Concierge Marketing Inc,888-223-5953,alex.bishop@conciergestrategies.com,Millbrook,https://medonesupply.com/
Construction Distribution &amp; Supply Company Inc.,416-665-8006 ,cdsppesupplies@cdsco.net,Concord,https://cdsco.net/
Continental Press,905-660-0311 ,sales@continentalpress.ca,Vaughan,http://www.continentalpress.ca
Cotton Candy Inc.,416-460-2176,mississauga@cottoncandy.com,Mississauga,https://cottoncandy.com/
Crownhill Packaging Ltd.,416-554-3325,marc@crownhillpackaging.com,Brampton,https://www.crownhillpackaging.com/
Cyan Solutions Ltd,613-860-4444 ,brent@cyansolutions.com,Ottawa,http://cyansolutions.com
Cy-Matic Technologies Inc,514-824-4544,ceo@cy-matic.com,Toronto,http://www.cy-matic.com
Dana Industries Inc.,647-500-3603,sales@danaindustries.com,Etobicoke,https://danaindustries.com/
Daquin Sales,613-226-8680 ,promo@daquinsales.com,Ottawa,https://www.daquinsales.com
D-Energy Systems Ltd.,647-631-0189,ppe@medicppesupplies.com,Vaughan,https://medicppesupplies.com
Dental Brands for Less Inc.,905-669-9329,info@dentalbrands.ca,Markham,https://dentalbrands.ca/
DGN PPE,905-670-4070,sales@dgn-marketing.com,Mississauga,https://www.dgnmarketing.com
Diligent Distribution Ld.,873-353-4199,info@diligentdistribution.ca,Nepean,N/A
Direct Disinfect,647-785-6319,ppe@directdisinfect.ca,Toronto,https://www.directdisinfect.ca
Direct Global / Direct Co-ops,416-836-4455,danny@directcoops.com,Toronto,https://www.directcoops.com
Directsave Promotions and Apparel,519-766-1900,sales@directsave.ca,Puslinch,https://www.directsavepromotions.com
Dominion Equipment &amp; Chemical,519-753-8421 ,orders.brantford@dominionequipment.com,Brantford,http://www.dominionequipment.com/
Elite North East Traders Inc,647-404-9532,easowjob@rogers.com,Markham,N/A
Equipment World Inc.,807-623-9561,info@equipworld.com,Thunder Bay,https://www.equipworld.com
eSupply Canada Ltd.,866-559-2233 ,info@esupplycanada.ca,Southampton,http://www.esupplycanada.ca/
factorydirect.ca,905-660-5030,headoffice@factorydirect.ca,Concord,http://www.factorydirect.ca
Factory Direct Medical,416-739-8393,info@factorydirectmedical.com,Concord,http://www.factorydirectmedical.com
Fastenal Canada Ltd,613-979-7714,canadagov@fastenal.com,Kitchener,http://www.fastenal.ca
F.A.S.T. Rescue Inc.,866-706-7283 ,sales@fast-rescue.com,Toronto,https://fast-rescue.com/
Fireground Apparel Company,416-989-0720,jason@brandedinc.ca,Mississauga,https://fireground.ca/
First Aid 4 U Training and Supply,866-966-4566,service@firstaid4u.ca,Ottawa,http://Firstaid4u.ca
First Aid Canada,855-322-4243,sales@firstaidcanada.com,Toronto,https://www.firstaidcanada.com/
First Aid Clinics of Canada,888-406-9117,info@firstaidclinics.ca,St. Catharines,https://www.firstaidclinics.ca/
First Aid Plus,613-726-7587,info@firstaidplus.ca,Nepean,http://www.firstaidplus.ca
First Aid Zone,905-477-1385,sales@firstaidzone.com,Markham,https://firstaidzone.ca/?SID=umrp0ttc35p4mt03974pdoi377
First Canada Medical Inc.,519-998-8227,kstrauss@firstcanadamedical.com,Waterloo,https://www.firstcanadamedical.com/
First For Safety,705-526-3853,info@firstforsafety.ca,Midland,https://www.firstforsafety.ca/
Fisher Scientific Company,800-234-7437,help@thermofisher.com,Ottawa,https://www.fishersci.ca
Flinn Scientific Canada Inc.,844-200-1455,flinn@flinnsci.ca,Hamilton,https://www.flinnsci.ca/ppe/
Fortec International Inc.,905-212-7700,info@fortec.ca,Mississauga,https://fortec.ca/
Frontier Dental Supply Inc.,416-281-3681 ,daniel@frontierdental.ca,Concord,https://frontierdental.ca/
Front Line Emergency Vehicles,647-886-4357,info@gtafs.ca,Markham,https://www.flev.ca
Front Line Emergency Vehicles Inc.,647-886-4357,vid@gtafs.ca,Markham,http://www.flev.ca
Genesis Financial Investment Group Ltd,905-686-5516,kirkbryan@thegenesisgroup.ca,Ajax,http://www.genesisppe.ca
Gerrie Electric Wholesale Limited,905-681-3656,egerrie@gerrie.com,Burlington,http://www.gerrie.com
Gertex,416-241-2346 ,aaron@gertex.com,Toronto,https://www.gertex.com
Gertex Solutions Inc.,416-398-7408,customerservice@gertexsolutions.com,Toronto,https://www.gertexsolutions.com/
Glasshan Global Trading Ltd.,416-447-7100 ,jay@glasshan.ca,Uxbridge,https://glasshan.ca
Glen Martin Limited,705-721-8800,info@glenmartin.ca,Barrie,https://www.glenmartinlimited.com
Global Expo Group,416-856-2911,arjun@glexgr.com,Mississauga,N/A
Global Industrial Canada,888-645-0878,sales@globalindustrial.ca,Richmond Hill,https://www.globalindustrial.ca/
Global Nexus Commodities,905-771-6826,sales@silkeny.com,Richmond Hill,http://www.globalnexuscommodities.com
Global Supplies Network,905-580-3677,sales@globalsuppliesnetwork.com,Burlington,https://globalsuppliesnetwork.com/
Glovely by SDOCCA,647-264-8972,sales@glovely.org,Toronto,https://www.glovely.org
GPC Internation Inc.,905-392-7700,gpcinternationalinc@gmail.com,Markham,https://gpcinternational.ca/
Grand &amp; Toy Limited,416-401-6300,nationalbidsearches@grandandtoy.com,Vaughan,https://www.grandandtoy.com/
Graviton Medical Supplies Inc,416-312-1749,sales@gravitonmed.com,Hamilton,http://www.gravitonmed.com
Great Canadian Supplies,905-331-1180,info@greatcanadiansupplies.ca,Burlington,https://www.gcs.supplies
Greenlane Wellness Solutions Inc.,416-876-2850,greenlanewellness@gmail.com,Thornhill,https://greenlanehealth.com/
Grimes Industrial Product Group,800-268-0568,csr@egrimesdirect.com,Barrie,https://egrimesdirect.com/
GTA Medical Supply,289-965-7865,info@gtams.ca,Stoney Creek,https://www.gtams.ca
GTA Trading Inc.,647-532-0742,gtatrading1@gmail.com,Vaughan,N/A
Hall Imaging,705-324-6691,ken@hallimaging.ca,Lindsay,http://www.hallimaging.ca
Hall Telecommunications Supply Ltd,800-265-2667,custserv@clearsightandsound.ca,Guelph,http://www.clearsightandsound.ca/
Hansler Smith Limited,800-267-8150,sales@hansler.com,Brockville,https://www.hansler.com
Happy Hands,647-503-1100,info@myhappyhands.ca,Markham,https://www.myhappyhands.ca/
Hausers Pharmacy,905-381-4420,kylen@hauserspharmacy.com,Hamilton,https://www.hauserspharmacy.com
Hazmasters Inc.,905-427-0220 ,daniel.mcdonagh@hazmasters.com,Ajax,https://www.hazmasters.com
Heart Starters Inc.,905-891-6746,gus@heartstarters.net,Milton,http://www.heartstarters.net
Heartzap Safety Training &amp; Equipment,866-253-3915 ,raysnow@heartzap.ca,Cambridge,http://www.heartzap.ca
HKR Solutions Inc.,416-727-4939,hkrsolutionsinc@gmail.com,Toronto,http://hkrsolutions.com/
Hour Consulting Corporation,416-741-3281,hi@hourconsulting.com,Toronto,http://www.piako.ca
Huronia  Med-E-Ox,519-524-5363,kerry@huroniawelding.com,Goderich,https://www.huroniawelding.com/
H Y C Design,905-264-0388,info@hycdesign.com,Woodbridge,https://www.hycdesign.com/
Imgadgets,416-569-6788,ish.chopra@imgadgets.com,Mississauga,https://www.imgadgets.com/
Imperial Ace Consultants Inc,416-358-7399,info@iacadvisory.com,Markham,http://www.iacadvisory.com
Incredible Novelties Inc.,416-663-9900 ,info@incrediblenovelties.com,Toronto,http://www.incrediblenovelties.com
Indelible Designs Inc.,905-602-9000,jim@indelibledesigns.com,Mississauga,https://www.indelibledesigns.com/ppe-items.htm
Industrial Choice Supply,519-235-3976,info@industrialchoicesupply.com,Exeter,http://industrialchoicesupply.com
Innovation Tech Lab,807-631-3503,innovationtechlab.canada@gmail.com,Milton,http://www.innovationtechlab.com
Intercity Industrial supplies,807-345-3324,craig.u@intercityindustrial.com,Thunder Bay,http://intercityindustrial.com/
inTouch Management Inc.,647-244-9838,info@intouchmanagement.ca,Barrie,https://intouchmanagement.ca/
Intro Global Inc.,416-871-6283,ppe@introglobal.co,Toronto,https://introglobal.co/ppe
Investglobe &amp; Associates Corporation,416-930-1482,victor@investglobe.ca,Toronto,http://www.investglobe.ca
IoT Innova Inc.,416-992-8949,sales@iotinnova.com,Vaughan,https://iotinnova.com
ISF PRO,416-881-2375,peter@isfpro.com,Otonabee,https://isfpro.com/
Island Lake Promotions Inc.,519-939-2772,barb@islandlakepromotions.com,Orangeville,https://www.islandlakepromotions.com/
iSource Solutions Inc.,416-399-4553,aldo@isourcesolutions.ca,Toronto,https://isourcesafetysupplies.ca/
Jack'd-Up Safety Inc.,226-791-2057,angela@jackdupsafety.com,Kitchener,https://www.jackdupsafety.com/
Jayson-MyersHealth,647-571-4454,sales@jayson-myersinc.com,Hamilton,https://jayson-myershealth.com
J.I.T. Industrial Supply and Distribution Ltd.,416-665-6600,kevinbly@jit-corp.com,Toronto,http://www.jit-corp.com
JJK Supply,613-762-2980,jason@jjksupply.ca,Ottawa,http://jjksupply.ca
JMS,647-616-0723,sales@jagmohaninc.com,Burlington,https://www.jagmohaninc.com/
JoHan CAN Distribution,519-301-8977,sales@johancan.com,Stratford,http://www.johancan.com
KAM Industrial Supply Ltd.,807-623-3167,dean@kamindustrial.com,Thunder Bay,http://www.kamindustrial.com/
Kangs Packaging Solutions Inc.,905-451-1433,sukhi@kangspackaging.com,Mississauga,https://www.kangspackaging.com/
Kenlea Inc,905-564-8808,sales@kenleainc.com,Mississauga,http://www.kenlea.com/
Keypak,866-566-2457,mrublik@keypak.ca,London,http://www.keypak.ca
Kibog Inc.,416-509-5159,info@kibog.com,Oakville,https://kibog.com/covid19-response
Klondike Lubricants Corporation,877-293-4691,info@klondikelubricants.com,Brampton,https://klondikelubricants.com/
Kwikcare,613-464-1188,hello@kwikcare.ca,Perth,http://www.kwikcare.ca
Latent Forensic Services Inc,289-684-2973,sales@latentforensics.com,none-listed,https://www.latentforensics.com/
Levitt-Safety Limited,888-453-8488,nawar-danou@levitt-safety.com,Oakville,https://www.levitt-safety.com
Levitt-Safety Ltd.,613-225-9550,csr@levitt-safety.com,Ottawa,https://www.levitt-safety.com
Life Medicentre Ltd.,403-975-9544,info@lifemedicentre.com,Toronto,https://www.lifemedicentre.com/
LinkGlobal Food Inc.,416-728-8139,stellawangca@gmail.com,Markham,http://www.canmedictech.com/
Lion Healthcase Solutions Inc.,613-882-5999,omar@lionhcs.com,Ottawa,N/A
Longevity Wellness,905-332-2121,contact@longevitywellnessandppe.com,Burlington,http://www.longevitywellnessandppe.com
Loraday Environmental Products Ltd.,705-733-3342,colleen.lorimer@loraday.com,Barrie,http://www.loraday.com
M2M,416-527-4647,nate@m2mbespoke.com,North York,https://www.made2measureclothing.com/accessories/ppe/
Macsomo Dustrubutors,519-980-1456,dennisbmacdonald@gmail.com,Windsor,N/A
Maple Leaf Medical Supplies,416-707-0626,marzj@live.ca,Toronto,https://covidprevention.ca
Marrin,416-571-5187,suzanne.dyment@shopmarrin.com,Toronto,http://shopmarrin.com
Mask for Sale,613-233-1115,sales@maskforsale.ca,Ottawa,http://www.maskforsale.ca
Mask Ontario Inc,647-512-6275,maskontario2020@gmail.com,Toronto,https://mask-ontario.com/
Maxim Medical Supplies,519-977-7200,info@maximmedical.ca,Windsor,http://www.maximmedical.ca
McCarthy Uniforms,905-749-0466,gvaccher@mccarthyuniforms.ca,Toronto,https://www.mccarthyuniforms.ca
Medcancare co. Ltd.,778-968-1533,jzhong@medcancare.ca,King City,http://www.medcancare.ca
Medical Safety Protection,416-704-2460,sales@medicalsafetyprotection.com,Richmond Hill,http://www.medicalsafetyprotection.com
Medical Supply Centre,416-996-3278,sales@medicalsupplycentre.com,Mississauga,https://medicalsupplycentre.com/
Medican Safety &amp; Medical Supply Co.,647-928-6729,sales@medicansupply.com,Vaughan,https://www.medicansupply.com
Medipro Canada Inc.,416-953-9232,davids@mediprocanada.com,Mississauga,http://fitzsimonsandsiddock.com/
MEDLEE,647-968-0601,elly@medlee.ca,Toronto,https://www.medlee.ca/
Medvance,613-408-4696,medvance.solutions@gmail.com,Bolton,N/A
Mera Medical Supplies,905-761-6866,infomera@bellnet.ca,Vaughan,http://shopmeramedical.com
Merchants Paper Company,519-977-9977 ,faviles@merchants.ca,Windsor,http://catalog.merchants.ca/
Mercury Lighting,905-738-6161,erict@mercurylighting.com,Concord,http://www.mercurylighting.com
Michael Walker Advertising,905-981-7329 ,tanner@michaelwalkeradv.com,Stoney Creek,https://www.michaelwalkeradv.com/
MobileSentrix Canada,204-995-1430,kyle@mobilesentrix.com,Concord,https://mobilesentrix.ca
Monarch Basics,519-966-2400 ,todd@monarchbasics.com,Windsor,https://www.monarchbasics.com/
Mr. Case Inc,416-661-2273,marc@mrcase.com,Toronto,https://www.mrcase.com
MRC Sleep,905-709-2297,info@mrchealthcare.com,Unionville,http://www.mrchealthcare.com
mrsports.ca inc,416-760-9111,mrsports@sympatico.ca,York,http://www.mrsports.ca
M.V. Fraser &amp; Associates Consulting Ltd.,647-887-3848,admin@mvfa.ca,Toronto,https://mvfa.ca/
Myant,416-423-7906,frank.florio@myant.ca,Etobicoke,https://myant.ca
Nebula Controls Ltd.,226-792-1506,contact@nebulamedicalsupplies.com,Waterloo,https://nebulamedicalsupplies.com/
Nella Toronto,416-740-2424 ,kyra@nellatoronto.com,North York,http://www.nellaonline.com
NexMed  ClearVü™,905-581-3718,sales@nexmed.ca,Hamilton,http://www.nexmed.ca
Next Gen Medi Co. Inc.,613-858-1480,nextgenmedico@gmail.com,Ottawa,N/A
No. 1 (for) Safety,905-677-0977,andreaone@rogers.com,Mississauga,https://covid19emergencyproducts.ca
Nordeste Canada Inc.,647-686-0033,bing.dong@nordeste.ca,Markham,N/A
Nova-Pro Industrial Supply Ltd,807-345-7484,novapro@tbaytel.net,Thunder Bay,http://nova-pro.com
Nuimpact Corp,888-727-7747 ,veronica@nuimpact.com,Markham,https://www.nuimpact.com/
OasisMade,416-890-8482,halysha@oasismade.com,Etobicoke,http://oasismade.com/
Oasis Originals Inc.,416-823-0706,michael.shapiro@oasisoriginals.com,Vaughan,http://www.oasisoriginals.com/
Occupational Safety Group,800-815-9980,supplies@osg.ca,London,https://shop.osg.ca
OC Hair Bath &amp; Body Co,705-910-0338 ,order@oc-beauty.ca,Sault Ste. Marie,https://www.oc-beauty.ca/
Odyssey Medical Inc,705-730-7600,kevin.jones@odysseymedical.ca,Barrie,https://www.odysseymedicalsupplies.ca/
Office Central,905-887-7700,customerservice@officecentral.com,Richmond Hill,https://shop.officecentral.com/
Of The Earth,888-828-5719,info@oftheearth.ca,Vaughan,https://www.oftheearth.ca
Omedical Corporation,416-455-2172,c.dimaria@omedical.ca,Burlington,N/A
Ontario Tools &amp; Fasteners Ltd.,416-661-1954,sales@otfl.ca,Toronto,https://www.otfl.ca/
OPC Health &amp; Safety Inc.,705-230-8759,sales@opcsafety.com,Greater Sudbury,https://www.opcsupply.com
Origin FR,888-347-3037,brad@originfr.com,Toronto,http://www.originppe.com
OrthoCanada,800-561-0310,info@orthocanada.com,Waterloo,https://www.orthocanada.com/
Ostek,905-827-8288,lisa.woodside@ostek.ca,Oakville,http://www.ostek.ca
OT Marketing Group,416-473-1506,tim@otmarketinggroup.com,Burlington,http://otmarketinggroup.com/
Ottawa Fastener Supply Ltd,613-828-4117,sales@ottawafastenersupply.com,Ottawa,http://www.ottawafastenersupply.com
Ottika Canada Ltd,416-409-9222,info@ottikacanada.com,Toronto,https://www.ottikacanada.com/
Paarizaat International Ltd,905-940-9700,asawhney@paarizaat.com,Markham,https://www.paarizaat.com
Paflor Developments Incorporated,416-543-7649,chukajr@paflordevelopmentsinc.com,Waterloo,http://www.paflordevelopmentsinc.com
PBJ Cleaning Depot Inc,519-291-6513,sales@cleaning-depot.ca,Listowel,https://www.cleaning-depot.ca
Peak Excellence Centre for Continuing Education Inc,800-498-4605,info@peakexcellence.ca,East York,https://www.peakexcellenceshop.com/
Pegasus Ltd,416-457-2633,contact@pegasusinfrastructure.com,Markham,https://www.pegasusinfrastructure.com/
Pepco Corp,844-360-4355,gbriand@pepco.ca,Timmins,N/A
Phoenix Quality,705-279-0538,bruce@phoenixquality.com,Oshawa,http://www.phoenixquality.com
P-KOM Promotional Specialties,613-762-0744,peter@pkom.com,Ottawa,https://www.pkom.com/
PPE Health Services Inc.,647-204-2926,scott@mackenziegrantassociates.com,Toronto,N/A
PPE Labs Inc.,866-786-0001,sales@ppelabs.com,Cookstown,http://www.ppelabs.com
PPE Niagara,905-348-2786,niagarappe@gmail.com,Niagara Falls,http://www.ppeniagara.com
PPE Toronto,905-669-7284,dave@ppetoronto.ca,Vaughan,https://ppetoronto.ca/
Premier Orthotics Lab,905-335-7029,info@premierorthoticslab.com,Burlington,http://www.premierorthoticslab.com
Proforma miComm,905-586-1059,ian.mcgugan@proforma.com,Orangeville,http://www.micomm.ca
Promo1Canada,877-703-9460,sales@promo1canada.com,Fenelon Falls,https://www.promo1canada.com/
Protect Canada,888-844-3886,info@protectcanada.ca,Markham,https://www.protectcanada.ca
Protective Packaging Ltd,416-521-6803,lbudd@protectivepackaging.ca,Toronto,https://www.protectivepackaging.ca
Protect Your Office,416-274-4745,kent@protectyouroffice.com,Richmond Hill,https://protectyouroffice.com
Protexial Medical Supply Inc.,705-808-3673,alexmacpherson@protexialmed.com,Ancaster,N/A
Pure Environmental,519-410-4722,admin@per-solutions.com,Simcoe,https://wholesale.per-solutions.com
Pure Selection Technologies,416-999-4117,winston@pureselectiontech.com,Toronto,http://www.pureselectiontech.com
Quantum Global Trading Company,647-870-1919,info@quantumglobaltrading.ca,Mississauga,https://www.quantumglobaltrading.ca
Radwell International,855-752-9393,casales@radwell.ca,Stoney Creek,http://radwell.ca
Rapid Response Event Services,289-272-0815 ,jason@rapidresponsees.ca,Niagara-on-the-Lake,http://www.rapidresponsees.ca
Raven Management Group,226-972-1539,info@ravengroup.ca,Kitchener,https://www.ravengroup.ca
Raw Office,855-335-4996,support@therawoffice.com,Toronto,https://www.rawoffice.ca
Rearz Inc.,519-620-1000,orders@rearz.ca,Cambridge,https://www.rearz.ca/
Red Stallion Inc.,416-321-9980,email@redstallion.ca,Toronto,http://www.redstallion.ca/
Rescue 7 Inc.,905-474-0770 ,johncollie@rescue7.net,Markham,https://www.rescue7.net
Restoration Depot GTA,416-822-6951,info@restorationdepot.ca,Scarborough,http://www.restorationdepot.online
Robert Allen Fabrics Canada Ltd,905-826-7750 ,bsharpe@tradgroup.com,Mississauga,https://www.robertallendesign.com/
Robinson Kingsley Investment Strategies Inc,647-469-2087,jeevan@robinsonkingsley.com,Mississauga,http://www.robinsonkingsley.com
Rododonto Supplies Inc.,905-746-6356,joserodriguex@rododonto.ca,Burlington,http://www.rododonto.ca
RONCO,905-660-6700 ,vani.kshattriya@roncosafety.com,Concord,http://roncosafety.com/
RXBIO Corp.,905-883-4333 ,ppe@rxbio.co,Richmond Hill,https://www.rxbio.co
S2 PPE Ltd.,647-262-0903,reziero@s2ppe.com,Toronto,https://www.s2ppe.com
Sacred Heart Seniors Health and Recreation Centre,647-382-1213,sacredheartrec@gmail.com,Mississauga,https://www.sacredheartseniors.com
Safe Direct Medical Supplies,877-899-4221,info@safedirectms.com,Toronto,https://safedirectms.com
Safety Corp Personal Protective Equipment,416-569-7944,lshtrom@proactivecs.com,Newmarket,https://torstenglove.com/
Safety Training Ottawa,613-824-0771,ppe@wahcanada.ca,Orleans,https://safetytrainingottawa.com/
Sama Spa Inc,647-657-5885,samaspainc@gmail.com,Mississauga,N/A
Samp Corporation,647-686-9266,fpatel@sampcorporation.com,Toronto,https://www.sampcorporation.com/
Sancheck,613-264-3987,sales@sancheck.com,Perth,https://www.sancheck.com/
Sanco Supplies Ltd.,416-321-0104,orders@sanco.ca,Scarborough,https://sanco.ca/index.php
Sanitation Supply Inc,647-492-8399,info@sanitationsupply.ca,Mississauga,https://www.sanitationsupply.ca
SBMW Janitorial Services Inc.,647-272-1101,sbmw.ppe@gmail.com,Brampton,https://www.sbmwjanitorialservices.com/
SB Simpson Industrial Supplies,855-746-7766,sales@sbsimpson.com,Burlington,https://www.sbsimpson.com/
Score Promotions,416-661-7779,info@scorepromotions.com,Toronto,http://www.scorepromotions.ca
Second Chance CPR,519-796-0010,matthewkomsa@icloud.com,Windsor,https://www.localline.ca/ppe-online
Servomax Inc.,514-745-5757 ,noah@servomax.com,Mississauga,http://www.servomax.com/
Seven Star,888-527-7827 ,tarick1@sevenstarsports.com,Hamilton,https://www.sevenstarsports.com
Sexauer Ltd./Home Depot Pro,905-301-3284,lat_leger@homedepot.com,Mississauga,https://www.homedepot.ca/en/home.html
Sherman IDA Pharmacy,905-318-9996,shermanidarx@gmail.com,Hamilton,N/A
Shield Can Medical,647-881-7137,orders@shieldcan.com,Toronto,https://www.shieldcan.com/
Signifi Solutions Inc,416-995-1180,ddickson@signifi.com,Mississauga,https://signifi.com/
Silver Crystal Group,647-926-9190,mdanischewsky@silvercrystalgroup.com,Toronto,https://www.silvercrystalhealth.com
Silver Linings Healthcare,833-733-3146,joshcole@silversuite.ca,Burlington,http://www.silverliningshc.ca
Silver Star Swag,613-226-7755 ,jennifer@silverstarswag.com,Brantford,http://silverstarswag.com/
Simranjit Sachar,437-770-4784,contact@simwedsjas.com,Mississauga,N/A
Skycon Building Products Ltd.,416-745-0604,info@skycon.ca,Toronto,http://www.skycon.ca/
Sling Choker Manufacturing,705-992-5444,nick@slingchokerssm.com,Sault Ste. Marie,http://www.slingchoker.com/
Sling Choker Mfg. (Balmertown) Ltd.,807-735-3131,jason@sc-rl.com,Balmertown,http://www.slingchoker.com/balmertown
"Sling Choker Mfg. North Bay, Ltd.",705-472-5090,lbrown@slingchoker.com,North Bay,N/A
Sola Medical Supplies,416-451-7999,jcammisa@solamedicalsupplies.com,Concord,http://www.solamedicalsupplies.com
Solomon &amp; Sons LTD.,807-937-3243 ,roger@gsolomons.com,Dryden,https://gsolomons.com
SOS Emergency Response Technologies,416-789-7689,info@sostor.com,Toronto,http://www.sostor.com
Soucie-Salo Safety Inc,705-674-8092,pat@souciesalosafety.com,Sudbury,https://www.souciesalosafety.com
Sourceone Medical Supply Ltd.,905-479-3055,info@medsourceone.ca,North York,https://www.medsourceone.ca/
Southwest Business Products,416-285-7044,customercare@southwestbusiness.ca,Toronto,https://www.southwestbusiness.ca/en/
SPI Health and Safety,800-465-6822,customersolutions@spi-s.com,Sudbury,http://www.spi-s.com
SPORTSTAR CAPITAL INC,416-567-3409,mstarkman@gmail.com,Toronto,N/A
Springboard Promotions,613-226-6888,sales@springboard.ca,Ottawa,https://www.springboard.ca
Sprytec Ltd.,647-449-7522,abagai@sprytec.com,Kleinburg,N/A
Sq 1 Pharmacy,647-927-3627,pharmacy@sq1healthgroup.com,Mississauga,https://www.sq1healthgroup.com
Staples Business Advantage,877-272-2121,easyservice@staples.com,Mississauga,http://www.staplesbusinessadvantage.ca
Staway Inc.,416-254-7382,stawayinc@gmail.com,Mississauga,http://staway.ca
Stay Safe Supply Inc.,519-636-8398,sales@staysafesupply.ca,London,https://www.staysafesupply.ca/
Steripro Canada Inc.,905-766-4051,ajayjain@steriprocanada.com,Mississauga,https://www.steripro.ca/
Subline,647-991-5291,hello.subline@gmail.com,Toronto,https://www.sublineca.ca
Summit Paper &amp; Packaging Ltd,905-458-5700,sumppl@on.aibn.com,Brampton,https://www.summitpaperandpackaging.com/
Sunnywei Group,416-564-3911,merrick@sunnywei.com,Concord,http://sunnywei.com/
Superior Glove,519-853-1920,joe@superiorglove.com,Acton,http://www.superiorglove.com
Superior Sany Solutions Group Ltd.,289-813-3403  ,orders@superiorsols.com,Oakville,http://superiorsols.com/
Superior Strategies,807-621-5726,jthompson@superior-strategies.ca,Thunder Bay,https://www.superior-strategies.ca/
Supreme Basics,800-667-3690,john.trevisan@supremebasics.com,Richmond Hill,https://www.supremebasics.com/en/
Swish Maintenance Limited,905-666-1224,btaylor@swishclean.com,Peterborough,https://www.swishclean.com/default.htm
Talbot Marketing,800-265-2607,info@talbot-promo.com,London,https://www.talbot-promo.com
Technoflow Canada Ltd.,416-871-0388,aniltechnoflowcanada@gmail.com,Markham,http://www.TechnoflowCanada.com
TEITL Corporation,416-729-9339,teitl.cs@rogers.com,Jordan Station,https://www.sterylcanada.com/
The Boutique Marketing Agency Inc.,905-527-1591,justin@jjaa.ca,Hamilton,http://www.theboutique.ca
"TheBuyersClub.ca, Inc.",647-878-0928,info@thebuyersclub.ca,Etobicoke,https://www.thebuyersclub.ca
The Health Depot,226-330-0200 ,andy@thehealthdepot.ca,London,https://thehealthdepot.ca/
The Millar Group,343-688-1066,dmmillar@millargroup.ca,Toronto,N/A
The Rag Factory,877-888-7847,info@theragfactory.ca,North York,http://theragfactory.ca
The Waabgaag Group,647-327-1440,zac@waabgaag.com,Curve Lake,N/A
Think Green Solutions Inc.,647-381-3733,ddevey@thinkgreensolutions.com,Cambridge,https://thinkgreensolutions.com
Touché Company,905-808-3487,connor@touchecompany.ca,Oakville,https://www.touchecompany.ca
Trademark Industries Inc,905-532-0442,info@trademarkindustriesinc.com,Markham,https://shop.trademarkindustriesinc.com/
TransCanada Trade Links Inc,647-449-1105,sales@transcanadatradelinks.com,Mississauga,https://www.transcanadatradelinks.com/
Trans-Quip Inc.,905-945-4280 ,rgibson@trans-quip.com,St. Catharines,http://trans-quip.com/
Tricific Enterprises Inc.,647-394-9662,sbhatti@tricific.com,Toronto,http://www.tricific.com
Tri-Versa-Global Inc,905-771-6494 ,joel@triversaglobal.com,Thornhill,http://www.triversaglobal.com
T&amp;T Industrial Supplies,905-851-4488,johnny@ttindsupplies.com,Woodbridge,http://www.ttindsupplies.com
T&amp;T Supermarket Inc.,905-695-8113,essentialneeds@tntsupermarket.com,Markham,https://www.tntsupermarket.com/
T-Zone Health Inc.,416-285-6055 ,ppe@t-zonehealth.com,Scarborough,http://www.t-zonehealth.com
Union 1 Promotions,416-628-4281,sales@madeunion.ca,Etobicoke,https://madeunion.ca
Valcarb Industrial Supplies Ltd,905-597-7705,service@valcarb.com,Richmond Hill,https://www.valcarb.com
VA Medical Inc.,647-921-2009,vamedicalcanada@gmail.com,Georgetown,N/A
Vavesmar Multi-Resource Incorporated,416-930-1482,victor.wambura@vavesmar.com,Aurora,N/A
Verde bio products,905-771-3773 ,trubino@verdeinc.ca,Richmond Hill,https://shopc19.ri007.ca/
Vibrant Photo and Electronics Inc,905-851-7770 ,mismail@vibrantphoto.com,Woodbridge,http://www.vibrantphoto.com
VitaPPE,647-799-0556,liemppe@gmail.com,Waterloo,https://www.vitappe.com/
Wabii Branding,289-527-1665,dbd@wabiibranding.com,Toronto,https://wabiibranding.com/?doing_wp_cron=1590418472.4108989238739013671875
Weiss Choice Group,289-928-3110,kweiss@weisschoicegroup.com,Niagara-on-the-Lake,http://weisschoicegroup.com
Wellcare Medical Supplies and Health Care Products Ltd.,905-284-2273,info@wellcare.ca,Mississauga,http://www.wellcare.ca
Weng Company Ltd.,647-642-8827,justinweng@wengcompany.com,Richmond Hill,N/A
We Share Supply Inc,613-344-1664,sales@wesharesupply.com,Gananoque,https://www.wesharesupply.com/
Whatcha Wanna Wear,510-758-8205,jill@customlogoproducts.ca,Brantford,http://www.customlogoproducts.ca
Wicari Global Distribution Inc.,647-458-4003,paul@wicari.com,Toronto,http://www.wicari.com
Window Cleaning Depot,647-362-0005,info@windowcleaningdepot.com,Markham,https://www.myhappyhands.ca
Windsor beauty supply,519-944-2300,media@windsorbeautysupply.com,Windsor,https://www.windsorbeautysupply.com/
Winsham,905-882-1827,sales@winsham.com,Thornhill,https://www.winsham.com
Wurth Industry of Canada Ltd.,519-756-9700 ,sales@wurthindustry.ca,Brantford,https://www.wurthindustry.ca
www.disinfect.space,905-674-5920,disinfectspace@gmail.com,Hamilton,http://www.disinfect.space
